id;amount;status
1;75409;Generic Pizza
2;62870;exuding card Pants
3;29042;Chief Bacon compressing
4;60335;neural
5;58526;Fresh leverage user-centric
6;5348;object-oriented
7;47906;Ergonomic transmitter payment
8;22918;Stand-alone navigate Algeria
9;8361;Licensed
10;53355;mobile white Analyst
